<?xml version="1.0" encoding="utf-8"?>
<!-- Generator: Adobe Illustrator 20.0.0, SVG Export Plug-In . SVG Version: 6.00 Build 0)  -->
<svg version="1.1" id="Layer_1" xmlns="http://www.w3.org/2000/svg" xmlns:xlink="http://www.w3.org/1999/xlink" x="0px" y="0px"
	 viewBox="0 0 97.3 90" style="enable-background:new 0 0 97.3 90;" xml:space="preserve">
<style type="text/css">
	.st0{fill:#FFFFFF;}
	.st1{fill:#514689;}
</style>
<title>Dedicated_TeamRGB</title>
<g id="Layer_1_1_">
	<path d="M80,40.9c-3.1,0.8-6.2,1.5-9.4,2.3c-1,0.3-1.6,0.2-2.1-0.8c-0.6-1.1-1.4-2.1-2.3-3v38H30.6v-38l-0.2-0.1
		c-0.6,0.9-1.3,1.8-1.9,2.8c-0.3,0.9-1.3,1.3-2.2,1c-0.1,0-0.1,0-0.2-0.1c-3-0.9-6.1-1.5-9.2-2.3v-0.8c0.2-0.3,0.4-0.7,0.5-1
		c1.2-3.2,2.5-6.4,3.7-9.6c1.2-3,3.3-5.6,6-7.4c2.1-1.4,4.3-2.7,6.5-4c1.2-0.7,2.5-1.2,3.7-1.9h22.3c2.4,1.3,4.8,2.5,7.2,3.8
		c4.6,2.4,8.1,6.4,9.9,11.2c0.8,2.3,1.7,4.6,2.6,6.9c0.2,0.7,0.5,1.3,0.8,2V40.9z M39,17.9c1.2,4.8,5.3,7.5,10.6,7.2
		c3.8-0.3,7.8-3.7,8.1-7.2H39z"/>
	<path class="st0" d="M39,17.9h18.8c-0.4,3.5-4.3,6.9-8.1,7.2C44.3,25.4,40.2,22.6,39,17.9z"/>
</g>
<path class="st0" d="M64.6,34.2l0.3-0.1c1.5,2.3,3,4.5,4.6,6.8c0.2,0.3,0.8,0.7,1.1,0.7c2.4-0.5,4.8-1.2,7.4-1.8
	c-1.9-4.9-3-10-6.6-13.9c-3.2-3.5-7.4-5.6-11.8-7.6c-2,5.3-5.5,8.5-11.3,8.5s-9.1-3.4-11.2-8.7c-2.8,1.7-5.6,3.2-8.2,4.8
	c-3,1.8-5.3,4.6-6.6,7.9c-1.1,2.7-2.1,5.4-3.1,8.1c-0.1,0.3-0.1,0.6-0.2,0.9c1.4,0.3,2.8,0.7,4.1,1s2.6,1,3.6,0.7s1.5-1.9,2.2-2.9
	c1-1.5,2-3,3-4.5l0.3,0.1v41.6h32.4V34.2z"/>
<g>
	<path class="st0" d="M48.5,46.7l-0.4,0.1c-0.1-0.2-0.2-0.3-0.4-0.3c-0.1,0-0.2,0-0.3,0.1c-0.1,0.1-0.1,0.1-0.1,0.2
		c0,0.1,0.1,0.2,0.3,0.3l0.4,0.1c0.4,0.1,0.6,0.4,0.6,0.7c0,0.2-0.1,0.4-0.3,0.6c-0.2,0.1-0.4,0.2-0.6,0.2c-0.2,0-0.4-0.1-0.6-0.2
		c-0.2-0.1-0.3-0.3-0.4-0.5l0.4-0.1c0,0.1,0.1,0.2,0.2,0.2s0.2,0.1,0.3,0.1c0.1,0,0.2,0,0.3-0.1c0.1-0.1,0.1-0.1,0.1-0.2
		c0-0.1-0.1-0.2-0.3-0.3l-0.3-0.1c-0.4-0.1-0.6-0.4-0.6-0.7c0-0.2,0.1-0.4,0.2-0.5c0.2-0.1,0.4-0.2,0.6-0.2
		C48.1,46.1,48.4,46.3,48.5,46.7z"/>
	<path class="st0" d="M51.3,46.5c0.2,0.3,0.3,0.6,0.3,0.9c0,0.4-0.1,0.7-0.3,0.9c-0.2,0.3-0.5,0.4-0.9,0.4c-0.4,0-0.7-0.2-0.9-0.5
		v1.5H49v-3.7h0.5v0.4c0.2-0.3,0.5-0.5,0.9-0.5C50.8,46.1,51.1,46.2,51.3,46.5z M49.5,47.4c0,0.3,0.1,0.5,0.2,0.6
		c0.2,0.2,0.4,0.2,0.6,0.2c0.2,0,0.5-0.1,0.6-0.3c0.1-0.2,0.2-0.4,0.2-0.6c0-0.2-0.1-0.5-0.2-0.6c-0.1-0.2-0.3-0.3-0.6-0.3
		c-0.3,0-0.5,0.1-0.6,0.2S49.5,47.2,49.5,47.4z"/>
	<path class="st0" d="M52.1,45.6c-0.1-0.1-0.1-0.1-0.1-0.2s0-0.2,0.1-0.2c0.1-0.1,0.1-0.1,0.2-0.1s0.2,0,0.2,0.1s0.1,0.1,0.1,0.2
		c0,0.1,0,0.2-0.1,0.2s-0.1,0.1-0.2,0.1C52.3,45.7,52.2,45.7,52.1,45.6z M52.6,48.7v-2.5h-0.5v2.5H52.6z"/>
</g>
<circle class="st1" cx="51.2" cy="47.4" r="10.6"/>
<g>
	<path class="st0" d="M44.4,45.3c-0.1-0.1-0.1-0.2-0.1-0.3c0-0.1,0-0.2,0.1-0.3c0.1-0.1,0.2-0.1,0.3-0.1s0.2,0,0.3,0.1
		C45,44.8,45,44.9,45,45c0,0.1,0,0.2-0.1,0.3c-0.1,0.1-0.2,0.1-0.3,0.1C44.6,45.4,44.5,45.4,44.4,45.3z M44.9,48.7v-2.8h-0.5v2.8
		H44.9z"/>
	<path class="st0" d="M45.4,47.3v-0.5h0.7v0.5H45.4z"/>
	<path class="st0" d="M49.1,46.3c0.3,0.3,0.4,0.6,0.4,1c0,0.4-0.1,0.7-0.4,1c-0.3,0.3-0.6,0.4-1,0.4c-0.4,0-0.8-0.2-1-0.5v1.7h-0.5
		v-4h0.5v0.4c0.2-0.3,0.6-0.5,1-0.5C48.5,45.9,48.9,46,49.1,46.3z M47.1,47.3c0,0.3,0.1,0.5,0.3,0.7c0.2,0.2,0.4,0.3,0.7,0.3
		c0.3,0,0.5-0.1,0.7-0.3c0.2-0.2,0.2-0.4,0.2-0.7c0-0.3-0.1-0.5-0.2-0.7c-0.2-0.2-0.4-0.3-0.7-0.3c-0.3,0-0.5,0.1-0.7,0.3
		C47.2,46.8,47.1,47,47.1,47.3z"/>
	<path class="st0" d="M50.2,48.3c-0.3-0.3-0.4-0.6-0.4-1c0-0.4,0.1-0.7,0.4-1c0.3-0.3,0.6-0.4,1-0.4c0.4,0,0.8,0.2,1,0.5v-0.4h0.5
		v2.8h-0.5v-0.4c-0.2,0.3-0.6,0.5-1,0.5C50.8,48.8,50.4,48.6,50.2,48.3z M52.2,47.3c0-0.3-0.1-0.5-0.3-0.7c-0.2-0.2-0.4-0.3-0.7-0.3
		c-0.3,0-0.5,0.1-0.7,0.3c-0.2,0.2-0.2,0.4-0.2,0.7c0,0.3,0.1,0.5,0.2,0.7c0.2,0.2,0.4,0.3,0.7,0.3c0.3,0,0.5-0.1,0.7-0.3
		C52.1,47.8,52.2,47.6,52.2,47.3z"/>
	<path class="st0" d="M54.5,48l0.8-2.1h0.6l-1.7,4l-0.5,0l0.5-1.3l-1.2-2.7h0.6L54.5,48z"/>
	<path class="st0" d="M58.5,47.9l0.3,0.3c-0.3,0.3-0.7,0.5-1.2,0.5c-0.5,0-0.8-0.1-1.1-0.4c-0.3-0.3-0.4-0.6-0.4-1
		c0-0.4,0.1-0.8,0.4-1c0.3-0.3,0.6-0.4,1.1-0.4c0.4,0,0.7,0.1,1,0.4c0.3,0.3,0.4,0.6,0.4,1.1h-2.4c0,0.3,0.1,0.5,0.3,0.7
		c0.2,0.2,0.4,0.3,0.8,0.3C57.9,48.3,58.2,48.2,58.5,47.9z M57.5,46.3c-0.5,0-0.8,0.2-0.9,0.6h1.8C58.2,46.5,57.9,46.3,57.5,46.3z"
		/>
</g>
<circle class="st1" cx="37.6" cy="54.4" r="3.6"/>
</svg>
