<?xml version="1.0" encoding="utf-8"?>
<!-- Generator: Adobe Illustrator 20.0.0, SVG Export Plug-In . SVG Version: 6.00 Build 0)  -->
<svg version="1.1" id="Layer_1" xmlns="http://www.w3.org/2000/svg" xmlns:xlink="http://www.w3.org/1999/xlink" x="0px" y="0px"
	 viewBox="0 0 97.3 76.4" style="enable-background:new 0 0 97.3 76.4;" xml:space="preserve">
<style type="text/css">
	.st0{fill:#FFFFFF;}
	.st1{fill:#C4D600;}
</style>
<title>Holiday_PayRGB</title>
<path d="M29.5,21c0-0.4,0-0.7,0-1c0-0.9,0.7-1.6,1.5-1.6c0,0,0,0,0.1,0h3.5c0.9-0.1,1.6,0.6,1.7,1.5c0,0.1,0,0.1,0,0.2
	c0,0.3,0,0.6,0,0.9h1.8c0-0.1,0-0.2,0-0.4c0-1.6,0-3.1,0-4.7c0-1.3,0.7-2.4,1.8-3c0.4-0.2,0.8-0.3,1.3-0.3c5.1,0,10.2,0,15.3,0
	c1.5,0.1,2.8,1.2,3,2.8c0.1,0.3,0.1,0.7,0.1,1c0,1.4,0,2.8,0,4.3v0.4h1.8c0-0.3,0-0.6,0-1c-0.1-0.9,0.6-1.6,1.5-1.7
	c0.1,0,0.1,0,0.2,0h3.5c0.9-0.1,1.6,0.6,1.6,1.5V20c0,0.3,0,0.6,0,1h0.4c3.1,0,6.2,0,9.3,0c1.6-0.1,2.9,1.2,3,2.7c0,0.1,0,0.2,0,0.3
	c0,12.4,0,24.8,0,37.3c0.1,1.4-0.9,2.7-2.3,2.9c-0.2,0-0.4,0-0.6,0H19.7c-1.5,0.1-2.8-1-2.9-2.6c0-0.1,0-0.2,0-0.3
	c0-12.5,0-24.9,0-37.4c-0.1-1.5,1.1-2.8,2.6-2.8c0.1,0,0.1,0,0.2,0L29.5,21L29.5,21z M49,62.2h19.4c0.2,0,0.4-0.1,0.6-0.2l9.7-9.7
	c0.2-0.1,0.2-0.3,0.2-0.5c0-6.1,0-12.2,0-18.3c0-0.2-0.1-0.3-0.2-0.5c-3.3-3.3-6.6-6.6-9.9-9.9c-0.1-0.1-0.3-0.2-0.4-0.2H29.7
	c-0.2,0-0.3,0.1-0.5,0.2c-3.4,3.4-6.9,6.9-10.3,10.3c-0.1,0.1-0.1,0.2-0.1,0.3c0,5.9,0,11.8,0,17.7c0,0.1,0.1,0.2,0.1,0.3l10.2,10.2
	c0.2,0.2,0.4,0.3,0.6,0.2L49,62.2L49,62.2z M42.2,21c0-0.9,0-1.7,0-2.5c0-1.3,1-2.4,2.4-2.4c0,0,0,0,0.1,0c2.8,0,5.7,0,8.5,0
	c1.2,0,2.2,0.9,2.3,2.1c0.1,0.8,0,1.6,0.1,2.5c0,0.1,0,0.2,0,0.4h2.1c0-1.7,0-3.3,0-5c0-1-0.6-1.5-1.6-1.5H41.3
	c-0.4,0-0.8,0.2-0.9,0.5c-0.2,0.3-0.3,0.6-0.3,1c0,1.5,0,3,0,4.6c0,0.1,0,0.2,0,0.3H42.2z M18.8,30.7l7.8-7.8h-6.8c-0.7,0-1,0.3-1,1
	c0,2.2,0,4.4,0,6.6V30.7z M26.5,62.2l-7.7-7.7v0.2c0,2.1,0,4.3,0,6.4c0,0.7,0.3,1,1,1L26.5,62.2L26.5,62.2z M71.5,22.9l7.3,7.4v-0.2
	c0-2.1,0-4.1,0-6.2c0-0.7-0.3-1-1-1L71.5,22.9L71.5,22.9z M53.5,21c0-0.9,0-1.7,0-2.5c0-0.3-0.2-0.4-0.5-0.4h-8.3
	c-0.4,0-0.6,0.1-0.6,0.6s0,1.2,0,1.8c0,0.2,0,0.4,0,0.6L53.5,21z M78.9,54.8L78.9,54.8l-7.3,7.4h6.2c0.7,0,1-0.3,1-1c0-2,0-4,0-6
	L78.9,54.8z M63.3,20.9h2.9c0-0.1,0-0.2,0-0.3c0-0.3-0.1-0.4-0.3-0.4c-0.6,0-1.2,0-1.8,0h-0.8C63.3,20.2,63.3,20.9,63.3,20.9z
	 M31.4,20.9h2.9v-0.6h-2.9V20.9z"/>
<path class="st0" d="M49,62.2H29.7c-0.2,0-0.4-0.1-0.6-0.2L18.9,51.8c-0.1-0.1-0.1-0.2-0.1-0.3c0-5.9,0-11.8,0-17.7
	c0-0.1,0.1-0.2,0.1-0.3c3.4-3.4,6.9-6.9,10.3-10.3c0.1-0.1,0.3-0.2,0.5-0.2h38.7c0.2,0,0.3,0.1,0.4,0.2c3.3,3.3,6.6,6.6,9.9,9.9
	c0.1,0.1,0.2,0.3,0.2,0.5c0,6.1,0,12.2,0,18.3c0,0.2-0.1,0.4-0.2,0.5L69,62.1c-0.1,0.2-0.3,0.2-0.6,0.2L49,62.2z M50.2,47.3
	c-0.1-0.2-0.1-0.4-0.2-0.5c-0.8-1.2-1.6-2.3-2.5-3.5c-0.7-1-1.4-1.9-2-2.9c-0.3-0.4-0.8-0.6-1.3-0.3c0,0-0.1,0-0.1,0.1l-4.9,3.5
	c-0.4,0.3-0.6,0.8-0.3,1.3l0.1,0.1c1.5,2.2,3,4.4,4.6,6.5c0.3,0.4,0.8,0.6,1.3,0.3c0,0,0.1,0,0.1-0.1c1.7-1.2,3.3-2.3,5-3.5
	C50.2,48,50.3,47.7,50.2,47.3L50.2,47.3z M26.4,41.6l0.2,1.6c0.2,2.1,0.5,4.2,0.7,6.3c0,0.6,0.5,1,1,1c0.2,0,0.5-0.1,0.7-0.3
	c2.1-1.6,4.2-3.1,6.3-4.6c0.5-0.3,0.6-0.9,0.4-1.4c-0.1-0.2-0.3-0.4-0.6-0.5l-4.9-2.1c-0.8-0.3-1.6-0.7-2.4-1
	c-0.5-0.2-1.1,0-1.3,0.5C26.4,41.3,26.4,41.4,26.4,41.6z M36.2,48.7c-2.5,0-4.6,2-4.6,4.6c0,2.5,2,4.6,4.6,4.6c2.5,0,4.6-2,4.6-4.6
	C40.8,50.8,38.7,48.8,36.2,48.7C36.2,48.8,36.2,48.8,36.2,48.7z"/>
<path class="st0" d="M42.2,21H40c0-0.1,0-0.2,0-0.3c0-1.5,0-3,0-4.6c0-0.4,0.1-0.7,0.3-1s0.5-0.6,0.9-0.5H56c1,0,1.6,0.5,1.6,1.5
	c0,1.6,0,3.3,0,5h-2.1c0-0.1,0-0.2,0-0.4c0-0.8,0-1.6-0.1-2.5c-0.1-1.2-1.1-2.1-2.3-2.1c-2.8,0-5.7,0-8.5,0c-1.3,0-2.4,1-2.4,2.3
	c0,0,0,0,0,0.1C42.2,19.3,42.2,20.1,42.2,21z"/>
<path class="st1" d="M18.8,30.7v-0.2c0-2.2,0-4.4,0-6.6c0-0.7,0.3-1,1-1h6.8L18.8,30.7z"/>
<path class="st1" d="M26.5,62.2h-6.7c-0.7,0-1-0.3-1-1c0-2.1,0-4.3,0-6.4v-0.2L26.5,62.2z"/>
<path class="st1" d="M71.5,22.9h6.3c0.7,0,1,0.3,1,1c0,2.1,0,4.1,0,6.2v0.2L71.5,22.9z"/>
<path class="st1" d="M78.9,54.8v0.3c0,2,0,4,0,6c0,0.7-0.3,1-1,1h-6.3L78.9,54.8L78.9,54.8z"/>
<path class="st0" d="M63.3,20.9v-0.7h0.8c0.6,0,1.2,0,1.8,0c0.3,0,0.4,0.1,0.3,0.4c0,0.1,0,0.2,0,0.3L63.3,20.9z"/>
<path class="st0" d="M31.5,21v-0.7h2.9V21H31.5z"/>
<path d="M50.2,47.3c0,0.3-0.1,0.7-0.4,0.9c-1.7,1.2-3.3,2.3-5,3.5c-0.4,0.3-1,0.3-1.3-0.1l-0.1-0.1c-1.5-2.2-3.1-4.3-4.6-6.5
	c-0.3-0.4-0.3-1,0.1-1.3l0.1-0.1l4.9-3.5c0.4-0.3,1-0.2,1.3,0.2c0,0,0,0.1,0.1,0.1c0.7,1,1.4,1.9,2,2.9c0.8,1.2,1.7,2.3,2.5,3.5
	C50,46.9,50.1,47.1,50.2,47.3z M47.9,47.2l-3.5-5L41,44.6l3.5,5L47.9,47.2z"/>
<path d="M26.4,41.6c0-0.6,0.4-1,0.9-1.1c0.2,0,0.3,0,0.5,0.1c0.8,0.3,1.6,0.7,2.4,1l4.8,2.2c0.5,0.1,0.9,0.7,0.7,1.2
	c-0.1,0.3-0.3,0.5-0.5,0.7c-2.1,1.5-4.2,3.1-6.3,4.6c-0.4,0.4-1,0.4-1.4-0.1c-0.2-0.2-0.3-0.4-0.3-0.7c-0.2-2.1-0.5-4.2-0.7-6.3
	L26.4,41.6z M32.9,44.9L28.5,43l0.5,4.8L32.9,44.9z"/>
<path d="M36.2,48.8c2.5,0,4.6,2.1,4.6,4.6S38.7,58,36.2,58s-4.6-2.1-4.6-4.6l0,0C31.6,50.8,33.7,48.7,36.2,48.8z M36.2,56
	c1.5,0,2.6-1.2,2.6-2.6s-1.2-2.6-2.6-2.6c-1.4,0-2.6,1.2-2.6,2.6C33.5,54.7,34.7,55.9,36.2,56C36.1,56,36.2,56,36.2,56z"/>
<path class="st1" d="M47.9,47.2l-3.4,2.4l-3.5-5l3.4-2.4L47.9,47.2z"/>
<path class="st1" d="M32.9,44.9L29,47.8L28.5,43L32.9,44.9z"/>
<path class="st1" d="M36.2,56c-1.4,0-2.6-1.1-2.6-2.6v-0.1c0-1.5,1.2-2.6,2.7-2.6s2.6,1.2,2.6,2.7C38.8,54.8,37.6,56,36.2,56z"/>
</svg>
