<?xml version="1.0" encoding="utf-8"?>
<!-- Generator: Adobe Illustrator 20.0.0, SVG Export Plug-In . SVG Version: 6.00 Build 0)  -->
<svg version="1.1" id="Layer_1" xmlns="http://www.w3.org/2000/svg" xmlns:xlink="http://www.w3.org/1999/xlink" x="0px" y="0px"
	 viewBox="0 0 97.3 64.5" style="enable-background:new 0 0 97.3 64.5;" xml:space="preserve">
<style type="text/css">
	.st0{fill:#FFFFFF;}
	.st1{fill:#514689;}
</style>
<title>Overseas_assignmentRGB</title>
<path d="M48,37.3v-1.9H20.3l0.1-0.2l12.4-13.3L46.4,7.4c0.5-0.5,1-1.1,1.5-1.6C48,5.7,48,5.6,48,5.5c0-1.2,0-2.5,0-3.8V1.5h1.9v0.4
	c0,1.5,0,2.9,0,4.4c0,0.1,0.1,0.2,0.2,0.2c1.5,0.6,3.1,1.2,4.6,1.8c2.6,1.1,5,2.6,7,4.5c3,2.7,5.4,6,7,9.7c1,2.2,1.6,4.4,2,6.8
	c0.3,2,0.4,4.1,0.3,6.2c0,0.5-0.1,1.1-0.2,1.6v0.2h6.9L73,49.9c0.9-0.2,1.8-0.1,2.7,0.2c0.9,0.2,1.6,0.6,2.3,1.2l-1.3,1.3
	c-0.2-0.1-0.3-0.2-0.5-0.4c-1.4-0.9-3.2-0.8-4.4,0.3c-0.8,0.8-1.8,1.4-2.9,1.6c-1.7,0.4-3.5-0.1-4.7-1.3c-0.4-0.4-0.9-0.7-1.5-0.9
	c-1.3-0.4-2.7-0.2-3.6,0.8c-0.7,0.7-1.6,1.2-2.5,1.4c-1.8,0.5-3.7,0-5.1-1.3c-0.7-0.7-1.6-1-2.5-1.1c-0.9,0-1.8,0.3-2.5,0.9
	c-0.6,0.6-1.4,1.1-2.2,1.4c-1.9,0.6-4,0.2-5.4-1.2c-0.7-0.6-1.5-1-2.4-1.1s-1.8,0.2-2.5,0.8c-0.5,0.4-1,0.8-1.5,1.2
	c-2,1-4.4,0.7-6.1-0.8c-0.5-0.5-1.1-0.8-1.7-1c-1.2-0.3-2.5,0-3.4,0.8l-0.1,0.1l-1.3-1.4c1.3-1.2,3.1-1.7,4.9-1.4L20,37.3H48z
	 M22.7,39.2v0.2l4.5,11.7c0,0.1,0.1,0.1,0.1,0.2c1.2,1.3,3.2,1.5,4.7,0.4c0.4-0.3,0.7-0.6,1.1-0.8c1.1-0.9,2.6-1.2,4-1
	c1.1,0.2,2,0.6,2.8,1.4c0.3,0.3,0.7,0.6,1.1,0.8c1.4,0.7,3.1,0.4,4.1-0.7c0.7-0.7,1.6-1.1,2.5-1.3c1.8-0.5,3.8,0.1,5.1,1.4
	c1.4,1.4,3.6,1.4,5,0l0,0c1.8-1.8,4.6-2,6.7-0.7c0.4,0.3,0.9,0.6,1.2,1c0.6,0.5,1.3,0.8,2.1,0.9c0.9,0,1.8-0.3,2.4-1
	c0.1-0.1,0.2-0.2,0.2-0.3l4.2-11l0.3-0.9L22.7,39.2z M47.9,33.5V8.7L24.6,33.5H47.9z M51.2,9c5.8,8.9,6.9,18.4,3,28.3h14.6
	c0.1,0,0.2,0,0.2-0.2c0.1-0.7,0.1-1.3,0.2-2c0.2-2.6-0.1-5.1-0.7-7.6c-1.6-6.3-5.5-11.8-10.9-15.4C55.6,10.8,53.5,9.8,51.2,9L51.2,9
	z M50,10.6L50,10.6l-0.1,26.7l0,0H52c0.1,0,0.1-0.1,0.2-0.1c1.3-3,2.1-6.1,2.3-9.4c0.2-2.2,0-4.4-0.3-6.5c-0.5-2.9-1.4-5.7-2.8-8.2
	C51,12.2,50.5,11.4,50,10.6z"/>
<path d="M78,56.9l-1.3,1.3c-0.1-0.1-0.2-0.2-0.4-0.3C75,57,73.3,57,72,58c-0.3,0.2-0.6,0.5-0.9,0.8c-1,0.8-2.3,1.1-3.6,1
	c-1.3-0.1-2.5-0.6-3.4-1.5C63,57.2,61.3,57,60,57.7c-0.3,0.2-0.7,0.4-0.9,0.7c-0.8,0.7-1.7,1.2-2.8,1.4c-1.7,0.3-3.5-0.2-4.8-1.4
	c-0.7-0.7-1.5-1-2.5-1c-0.9,0-1.8,0.3-2.4,0.9c-0.6,0.6-1.4,1.1-2.2,1.4c-1.9,0.7-4,0.2-5.5-1.2c-0.7-0.7-1.5-1-2.5-1.1
	c-0.9-0.1-1.7,0.2-2.4,0.8c-0.5,0.4-1,0.8-1.5,1.1c-2,1-4.4,0.7-6.1-0.8c-0.5-0.5-1.2-0.9-1.9-1.1c-1.1-0.3-2.3,0-3.2,0.8l-0.1,0.1
	l0,0l-1.3-1.4c0.3-0.3,0.7-0.5,1-0.7c1.8-1.1,4-1,5.7,0.1c0.4,0.2,0.7,0.5,1,0.8c1.3,1.2,3.4,1.2,4.8,0c0.7-0.8,1.7-1.3,2.7-1.5
	c1.7-0.4,3.6,0,4.9,1.2c0.5,0.4,1,0.8,1.6,1c1.2,0.4,2.5,0.1,3.4-0.7c0.6-0.6,1.3-1,2-1.3c1.9-0.8,4.1-0.3,5.7,1.1
	c0.5,0.5,1.1,0.8,1.8,1c1.1,0.2,2.2,0,3-0.8c0.5-0.5,1.1-0.8,1.7-1.2c2-1,4.3-0.7,5.9,0.7c0.4,0.4,0.8,0.7,1.3,1
	c1.3,0.6,2.9,0.3,3.9-0.7c0.6-0.6,1.3-1,2-1.3c1.4-0.5,2.9-0.4,4.2,0.2c0.3,0.2,0.7,0.4,1,0.6C77.7,56.7,77.9,56.8,78,56.9z"/>
<path class="st0" d="M22.7,39.2H75l-0.3,0.9l-4.2,11c0,0.1-0.1,0.2-0.2,0.3c-0.6,0.7-1.5,1-2.4,1c-0.8-0.1-1.5-0.4-2.1-0.9
	c-0.4-0.4-0.8-0.7-1.2-1c-2.1-1.4-4.9-1.1-6.7,0.7c-1.4,1.4-3.6,1.4-5,0l0,0c-1.3-1.3-3.3-1.8-5.1-1.3c-0.9,0.2-1.8,0.7-2.5,1.3
	c-1.1,1.1-2.7,1.4-4.1,0.7c-0.4-0.2-0.8-0.5-1.1-0.8c-0.8-0.7-1.8-1.2-2.9-1.4c-1.4-0.2-2.9,0.1-4,1c-0.4,0.3-0.7,0.6-1.1,0.8
	c-1.5,1-3.4,0.8-4.7-0.4c-0.1-0.1-0.1-0.1-0.1-0.2l-4.5-11.6L22.7,39.2z"/>
<path class="st1" d="M47.9,33.5H24.6L47.8,8.7L47.9,33.5L47.9,33.5z"/>
<path class="st1" d="M51.2,9L51.2,9c2.2,0.8,4.4,1.8,6.4,3.1c5.4,3.6,9.3,9.1,10.9,15.5c0.6,2.5,0.9,5.1,0.7,7.6
	c0,0.7-0.1,1.3-0.2,2c0,0.1,0,0.2-0.2,0.2H54.2C58.1,27.3,57,17.9,51.2,9z"/>
</svg>
