<?xml version="1.0" encoding="utf-8"?>
<!-- Generator: Adobe Illustrator 20.0.0, SVG Export Plug-In . SVG Version: 6.00 Build 0)  -->
<svg version="1.1" id="Layer_1" xmlns="http://www.w3.org/2000/svg" xmlns:xlink="http://www.w3.org/1999/xlink" x="0px" y="0px"
	 viewBox="0 0 97.3 90" style="enable-background:new 0 0 97.3 90;" xml:space="preserve">
<style type="text/css">
	.st0{fill:#FFFFFF;}
	.st1{fill:#DC582A;}
</style>
<title>Tax_ComplientRGB</title>
<path class="st0" d="M32.4,19.6l33,0.4l0.4,5.8c0,0,0.5,5.7-0.2,6s0.2,10.9,0.2,10.9L64,47.3l-0.9,3l-4.3,4.8l-4.4,3.5l-7,1
	l-5.5-1.8l-5.4-5.4c0,0-1.8-2.5-2.1-2.5c-1.1-0.2-2.3-0.5-3.3-0.9c-0.3-0.2,3.7,1.2,3.7,1.2l-2-6l-0.6-5.8L31.9,31l0.2-4.5
	L32.4,19.6z"/>
<path d="M31.3,24.6v-0.3c0-1.5,0-3,0-4.5c0-0.5,0.3-1,0.8-1c0.1,0,0.1,0,0.2,0h33.4c0.5,0,1,0.3,1,0.9v0.1c0,1.5,0,3,0,4.5v0.3h6.8
	c0.5,0,1,0.3,1,0.9v0.1c0,3.9,0,7.9,0,11.8c0,2.1-0.5,4.2-1.5,6.1c-1,2.1-2.4,3.9-4.1,5.4c-1.5,1.3-3.4,2.1-5.4,2.3
	c-0.1,0-0.2,0.1-0.3,0.2c-1,1.7-2.2,3.2-3.6,4.6c-2,2-4.5,3.5-7.3,4.3c-0.8,0.2-1.5,0.3-2.3,0.4V66l0.8,0.1c2.4,0.2,4.7,1,6.6,2.4
	c1.2,0.8,2.2,2,2.7,3.4c0.2,0.6,0.3,1.2,0.3,1.8c0,0.5-0.4,0.9-0.8,0.9H38.7c-0.3,0-0.5-0.1-0.8-0.2c-0.2-0.2-0.3-0.5-0.3-0.8
	c0.1-1.6,0.8-3.2,2-4.2c1.5-1.5,3.5-2.5,5.5-2.9c0.9-0.2,1.8-0.4,2.8-0.4h0.2v-5.3L47,60.6c-1.8-0.3-3.5-0.8-5-1.7
	c-2.8-1.7-5.1-4-6.8-6.7c-0.1-0.1-0.2-0.3-0.3-0.4c-0.1-0.3-0.4-0.4-0.7-0.4c-1.9-0.3-3.6-1.1-5.1-2.3c-2.2-1.9-3.9-4.4-4.9-7.1
	c-0.5-1.5-0.8-3-0.8-4.6c0-3.9,0-7.7,0-11.6c0-0.5,0.3-1,0.9-1h0.1L31.3,24.6L31.3,24.6z M64.8,20.8H33.2V21c0,6.3,0,12.5,0,18.8
	c0,2.8,0.6,5.5,1.8,8.1c1.3,2.9,3.2,5.6,5.6,7.7c2,1.8,4.4,2.9,7.1,3.3c1.5,0.2,3.1,0.1,4.5-0.3c2.2-0.7,4.2-1.9,5.8-3.5
	c1.8-1.7,3.3-3.8,4.5-6c1.6-3,2.4-6.3,2.4-9.7c0-6.1,0-12.2,0-18.2L64.8,20.8z M25.4,26.5v0.3c0,3.4,0,6.9,0,10.3
	c0,1.8,0.3,3.5,1.1,5.2c0.8,1.9,2,3.7,3.6,5.1c1,0.9,2.1,1.5,3.3,1.9h0.2l0,0l-0.2-0.4c-1.4-2.9-2.1-6.1-2.1-9.3c0-4.2,0-8.4,0-12.6
	v-0.3L25.4,26.5z M66.7,26.5v0.3c0,4.3,0,8.6,0,12.9c0,1-0.1,2-0.2,3c-0.3,2.2-1,4.4-2,6.4l-0.1,0.2h0.2c1.4-0.4,2.7-1.2,3.8-2.3
	c1.4-1.4,2.5-3,3.2-4.8c0.7-1.5,1-3.1,1-4.7c0-3.6,0-7.1,0-10.7c0-0.1,0-0.1,0-0.2L66.7,26.5z M58.4,72.8c0-0.1,0-0.2-0.1-0.3
	c-0.3-0.7-0.7-1.4-1.3-1.9c-1.4-1.3-3.1-2.1-5-2.4c-1.6-0.3-3.3-0.4-5-0.1c-1.8,0.2-3.5,0.8-5,1.8c-0.9,0.6-1.6,1.4-2.1,2.3
	c-0.1,0.2-0.2,0.5-0.3,0.7L58.4,72.8z"/>
<path class="st1" d="M49,30.3l1.3,2.7c0.2,0.4,0.4,0.9,0.6,1.3c0.2,0.5,0.7,0.8,1.2,0.9l4.3,0.6h0.2v0.1c-0.1,0-0.1,0.1-0.2,0.1
	c-1,1-2,1.9-3,2.9C53,39.3,52.8,40,53,40.6c0.3,1.4,0.5,2.8,0.7,4.1c0,0.1,0,0.1,0,0.2l-1.2-0.7c-0.9-0.5-1.8-0.9-2.7-1.4
	c-0.5-0.3-1.1-0.3-1.7,0c-1.2,0.7-2.5,1.3-3.7,1.9l-0.2,0.1c0-0.3,0.1-0.5,0.1-0.8l0.6-3.7c0.1-0.5-0.1-1.1-0.5-1.4l-3-2.9l-0.2-0.2
	l0.8-0.1l3.7-0.5c0.5-0.1,1-0.4,1.2-0.9c0.6-1.3,1.2-2.5,1.9-3.8L49,30.3z"/>
<path class="st0" d="M58.4,72.8c0-0.1,0-0.2-0.1-0.3c-0.3-0.7-0.7-1.4-1.3-1.9c-1.4-1.3-3.1-2.1-5-2.4c-1.6-0.3-3.3-0.4-5-0.1
	c-1.8,0.2-3.5,0.8-5,1.8c-0.9,0.6-1.6,1.4-2.1,2.3c-0.1,0.2-0.2,0.5-0.3,0.7L58.4,72.8L58.4,72.8z"/>
</svg>
