<?xml version="1.0" encoding="utf-8"?>
<!-- Generator: Adobe Illustrator 20.0.0, SVG Export Plug-In . SVG Version: 6.00 Build 0)  -->
<svg version="1.1" id="Layer_1" xmlns="http://www.w3.org/2000/svg" xmlns:xlink="http://www.w3.org/1999/xlink" x="0px" y="0px"
	 viewBox="0 0 51.9 51.8" style="enable-background:new 0 0 51.9 51.8;" xml:space="preserve">
<style type="text/css">
	.st0{fill:#FFFFFF;stroke:#1D1D1B;stroke-width:4;stroke-miterlimit:10;}
	.st1{fill:#FFFFFF;}
	.st2{clip-path:url(#SVGID_2_);}
	.st3{fill:#018ECA;}
	.st4{fill:#8CC75C;}
	.st5{fill:#FEFEFE;}
	.st6{fill:#BEE1F0;}
	.st7{fill:#C4E2AD;}
	.st8{fill:#727272;}
</style>
<path class="st0" d="M244.5,304.4c0,11.8-9.5,21.3-21.3,21.3s-21.3-9.5-21.3-21.3s9.5-21.3,21.3-21.3S244.5,292.7,244.5,304.4z"/>
<g id="BvVoa7_1_">
	
		<image style="overflow:visible;" width="1800" height="363" id="BvVoa7_3_" xlink:href="62B44094B71DE08C.png"  transform="matrix(1.959826e-02 0 0 1.959826e-02 205.5938 300.8374)">
	</image>
</g>
<circle class="st1" cx="25.8" cy="25.8" r="25.3"/>
<g id="BvVoa7_2_">
	
		<image style="overflow:visible;" width="1800" height="363" id="BvVoa7_4_" xlink:href="62B44094B71DE08D.png"  transform="matrix(1.959826e-02 0 0 1.959826e-02 281.6973 219.9075)">
	</image>
</g>
<g>
	<defs>
		<path id="SVGID_1_" d="M10.6,6.9h26v25h-26V6.9z"/>
	</defs>
	<clipPath id="SVGID_2_">
		<use xlink:href="#SVGID_1_"  style="overflow:visible;"/>
	</clipPath>
	<g id="_x31_uJrte.tif" class="st2">
		<g>
			<path class="st3" d="M10.4,11.3c0-0.4,0-0.8,0-1.2c0-0.1,0-0.3,0.1-0.4c0-0.3,0.1-0.5,0.1-0.8C10.6,9,10.6,9,10.7,9
				c0.5,0.5,1,0.9,1.7,1.1c0.9,0.3,1.8,0.3,2.8,0.2c0.9-0.1,1.9-0.3,2.8-0.4c0.8-0.1,1.6-0.2,2.4-0.1c1,0.1,1.7,0.6,2.2,1.4
				c0.4,0.6,0.5,1.3,0.6,2c0,0.2,0,0.4,0.1,0.5c0-0.1,0.1-0.1,0.1-0.2c0.4-1,0.8-2.1,1.2-3.1c0.7-1.7,2-2.8,3.9-3.1
				c0.2,0,0.4-0.1,0.6-0.1c0.4,0,0.8,0,1.2,0c0,0,0,0,0.1,0c1.1,0.1,2.1,0.4,3,0.7c0.1,0,0.1,0.1,0.1,0.2c-0.6,1.5-1.1,3-1.7,4.6
				c0,0.1-0.1,0.1-0.2,0c-0.6-0.4-1.2-0.5-1.8-0.4c-0.8,0.1-1.4,0.5-1.7,1.3c-0.1,0.3-0.2,0.6-0.3,0.8c-2,5.2-3.9,10.4-5.9,15.7
				c-0.3,0.7-0.5,1.4-0.8,2.1c-0.2,0-0.4,0-0.5,0c-1.4,0-2.9,0-4.3,0c0,0,0-0.1,0-0.1c1.5-3.8,2.9-7.6,4.4-11.5
				c0.3-0.7,0.4-1.4,0.4-2.2c0-0.6-0.3-1.1-0.9-1.3c-0.3-0.1-0.6-0.2-1-0.2c-0.8,0-1.5,0.1-2.3,0.1c-0.6,0-1.3,0.1-1.9,0
				c-0.8-0.2-1.4-0.6-1.6-1.4c0-0.1,0-0.1-0.1-0.1c-0.1,0-0.2,0-0.3,0c-0.9-0.2-1.6-1.3-1.5-2.3c0-0.1,0-0.1-0.1-0.2
				c-0.2-0.1-0.3-0.2-0.4-0.4c-0.2-0.3-0.3-0.6-0.3-0.9C10.4,11.7,10.5,11.5,10.4,11.3z M21.2,15.9C21.2,15.8,21.2,15.8,21.2,15.9
				c0-0.2,0-0.3,0-0.4c0-0.7,0-1.4-0.2-2.1c-0.2-0.9-0.8-1.4-1.7-1.5c-0.5-0.1-1,0-1.5,0c-0.8,0.1-1.6,0.2-2.4,0.3
				c-0.8,0-1.6,0-2.3-0.4c-0.1,0-0.1,0-0.1,0c0,0.5,0.1,1,0.7,1.2c0.1,0,0.1,0,0,0.1c-0.1,0.2,0,0.3,0,0.5c0.1,0.5,0.6,0.9,1,0.8
				c0.1,0,0.1,0,0.2,0.1c0.2,0.5,0.5,0.8,1,0.9c0.3,0.1,0.6,0.1,0.9,0c0.6,0,1.2-0.2,1.7-0.2c0.4,0,0.8-0.1,1.2,0
				C20.4,15.2,20.8,15.4,21.2,15.9z"/>
			<path class="st4" d="M32.1,32.3c-0.4-1.1-0.9-2.2-1.3-3.3c0-0.1-0.1-0.1-0.2-0.1c-2.3,0-4.5,0-6.8,0c-0.2,0-0.2,0-0.1-0.1
				c0.5-1.3,0.9-2.5,1.4-3.8c0-0.1,0.1-0.1,0.2-0.1c1.2,0,2.5,0,3.7,0c0.2,0,0.2,0,0.1-0.2c-0.7-1.6-1.3-3.3-2-4.9
				c0-0.1,0-0.2,0-0.3c0.7-1.9,1.4-3.7,2.1-5.6c0,0,0-0.1,0-0.1c0.1,0,0.1,0.1,0.1,0.1c1.2,2.9,2.3,5.9,3.5,8.8
				c1.2,3.1,2.5,6.3,3.7,9.4c0,0,0,0.1,0.1,0.1c0,0,0,0,0,0c-0.7,0-1.4,0-2.2,0C33.6,32.3,32.8,32.3,32.1,32.3z"/>
			<path class="st5" d="M28.9,7.2c-0.2,0-0.4,0.1-0.6,0.1c-1.8,0.4-3.2,1.4-3.9,3.1c-0.4,1-0.8,2.1-1.2,3.1c0,0.1,0,0.1-0.1,0.2
				c0-0.2,0-0.4-0.1-0.5c-0.1-0.7-0.3-1.4-0.6-2c-0.5-0.8-1.2-1.3-2.2-1.4c-0.8-0.1-1.6,0-2.4,0.1c-0.9,0.1-1.9,0.3-2.8,0.4
				c-0.9,0.1-1.9,0.1-2.8-0.2c-0.7-0.2-1.2-0.6-1.7-1.1c0,0-0.1-0.1-0.1-0.1c-0.1,0.3-0.1,0.5-0.1,0.8c0,0.1,0,0.3-0.1,0.4
				c0-0.9,0-1.9,0-2.8c0-0.1,0-0.1,0.1-0.1C16.6,7.2,22.8,7.2,28.9,7.2z"/>
			<path class="st6" d="M16.1,32.3C16.1,32.3,16.1,32.3,16.1,32.3c1.4,0,2.9,0,4.3,0c0.2,0,0.4,0,0.5,0c0,0,0,0,0,0
				C19.3,32.3,17.7,32.3,16.1,32.3z"/>
			<path class="st7" d="M32.1,32.3c0.8,0,1.5,0,2.3,0c0.7,0,1.4,0,2.2,0c0,0.1-0.1,0-0.1,0C35,32.3,33.5,32.3,32.1,32.3
				C32.1,32.3,32.1,32.3,32.1,32.3z"/>
		</g>
	</g>
</g>
<g>
	<path class="st8" d="M12.8,39v-4.3h2.8V35h-2.4v1.6h2.2v0.3h-2.2V39H12.8z"/>
	<path class="st8" d="M16.5,39h-0.4v-3.1h0.4v0.6h0c0.1-0.2,0.2-0.4,0.4-0.5c0.2-0.1,0.4-0.1,0.6-0.1v0.4c-0.2,0-0.4,0-0.5,0.1
		c-0.1,0.1-0.2,0.2-0.3,0.3c-0.1,0.1-0.1,0.3-0.2,0.4c0,0.2,0,0.3,0,0.5V39z"/>
	<path class="st8" d="M18.3,37.5c0,0.2,0,0.3,0.1,0.5c0,0.1,0.1,0.3,0.2,0.4c0.1,0.1,0.2,0.2,0.3,0.3s0.3,0.1,0.5,0.1
		c0.2,0,0.4-0.1,0.6-0.2c0.2-0.1,0.3-0.3,0.3-0.5h0.4c0,0.1-0.1,0.3-0.2,0.4c-0.1,0.1-0.2,0.2-0.3,0.3c-0.1,0.1-0.2,0.2-0.4,0.2
		c-0.1,0.1-0.3,0.1-0.5,0.1c-0.2,0-0.5,0-0.6-0.1c-0.2-0.1-0.3-0.2-0.4-0.3c-0.1-0.1-0.2-0.3-0.3-0.5c-0.1-0.2-0.1-0.4-0.1-0.6
		c0-0.2,0-0.4,0.1-0.6c0.1-0.2,0.2-0.4,0.3-0.5c0.1-0.1,0.3-0.3,0.4-0.4c0.2-0.1,0.4-0.1,0.6-0.1c0.4,0,0.8,0.1,1,0.4
		c0.2,0.3,0.4,0.7,0.4,1.3H18.3z M20.3,37.2c0-0.2,0-0.3-0.1-0.4c0-0.1-0.1-0.2-0.2-0.3c-0.1-0.1-0.2-0.2-0.3-0.2s-0.3-0.1-0.4-0.1
		c-0.2,0-0.3,0-0.4,0.1c-0.1,0.1-0.2,0.1-0.3,0.2c-0.1,0.1-0.2,0.2-0.2,0.3c-0.1,0.1-0.1,0.3-0.1,0.4H20.3z"/>
	<path class="st8" d="M21.6,37.5c0,0.2,0,0.3,0.1,0.5c0,0.1,0.1,0.3,0.2,0.4c0.1,0.1,0.2,0.2,0.3,0.3s0.3,0.1,0.5,0.1
		c0.2,0,0.4-0.1,0.6-0.2c0.2-0.1,0.3-0.3,0.3-0.5H24c0,0.1-0.1,0.3-0.2,0.4c-0.1,0.1-0.2,0.2-0.3,0.3c-0.1,0.1-0.2,0.2-0.4,0.2
		c-0.1,0.1-0.3,0.1-0.5,0.1c-0.2,0-0.5,0-0.6-0.1c-0.2-0.1-0.3-0.2-0.4-0.3c-0.1-0.1-0.2-0.3-0.3-0.5c-0.1-0.2-0.1-0.4-0.1-0.6
		c0-0.2,0-0.4,0.1-0.6c0.1-0.2,0.2-0.4,0.3-0.5c0.1-0.1,0.3-0.3,0.4-0.4c0.2-0.1,0.4-0.1,0.6-0.1c0.4,0,0.8,0.1,1,0.4
		c0.2,0.3,0.4,0.7,0.4,1.3H21.6z M23.7,37.2c0-0.2,0-0.3-0.1-0.4c0-0.1-0.1-0.2-0.2-0.3c-0.1-0.1-0.2-0.2-0.3-0.2
		c-0.1-0.1-0.3-0.1-0.4-0.1c-0.2,0-0.3,0-0.4,0.1c-0.1,0.1-0.2,0.1-0.3,0.2c-0.1,0.1-0.2,0.2-0.2,0.3c-0.1,0.1-0.1,0.3-0.1,0.4H23.7
		z"/>
	<path class="st8" d="M24.4,39l1.7-4.3h0.5l1.7,4.3h-0.4l-0.5-1.4h-2L24.8,39H24.4z M25.5,37.3h1.7L26.3,35L25.5,37.3z"/>
	<path class="st8" d="M31.1,35.9h0.4v2.8c0,0.2,0,0.4-0.1,0.6c0,0.2-0.1,0.4-0.2,0.5c-0.1,0.1-0.3,0.3-0.4,0.3
		c-0.2,0.1-0.4,0.1-0.7,0.1c-0.2,0-0.4,0-0.6-0.1c-0.2-0.1-0.3-0.1-0.4-0.2c-0.1-0.1-0.2-0.2-0.2-0.3c-0.1-0.1-0.1-0.2-0.1-0.3h0.4
		c0,0.1,0.1,0.2,0.1,0.3c0.1,0.1,0.1,0.1,0.2,0.2c0.1,0,0.2,0.1,0.3,0.1c0.1,0,0.2,0,0.3,0c0.2,0,0.4,0,0.6-0.1
		c0.1-0.1,0.3-0.2,0.3-0.3c0.1-0.1,0.1-0.3,0.1-0.5s0-0.3,0-0.5c-0.1,0.2-0.3,0.3-0.5,0.4c-0.2,0.1-0.4,0.1-0.6,0.1
		c-0.2,0-0.4,0-0.6-0.1c-0.2-0.1-0.3-0.2-0.4-0.4c-0.1-0.1-0.2-0.3-0.3-0.5c-0.1-0.2-0.1-0.4-0.1-0.6c0-0.2,0-0.4,0.1-0.6
		c0.1-0.2,0.1-0.4,0.2-0.5c0.1-0.1,0.3-0.3,0.4-0.3c0.2-0.1,0.4-0.1,0.6-0.1c0.1,0,0.2,0,0.3,0s0.2,0.1,0.3,0.1s0.2,0.1,0.3,0.2
		c0.1,0.1,0.1,0.2,0.2,0.3h0V35.9z M31.1,37.4c0-0.2,0-0.4-0.1-0.5c0-0.2-0.1-0.3-0.2-0.4c-0.1-0.1-0.2-0.2-0.3-0.3
		c-0.1-0.1-0.3-0.1-0.4-0.1c-0.2,0-0.3,0-0.4,0.1c-0.1,0.1-0.2,0.1-0.3,0.2c-0.1,0.1-0.2,0.2-0.2,0.4C29.1,37,29,37.1,29,37.3
		c0,0.2,0,0.4,0,0.5c0,0.2,0.1,0.3,0.2,0.4s0.2,0.2,0.3,0.3c0.1,0.1,0.3,0.1,0.5,0.1c0.2,0,0.3,0,0.4-0.1c0.1-0.1,0.2-0.2,0.3-0.3
		c0.1-0.1,0.2-0.3,0.2-0.4C31.1,37.8,31.1,37.6,31.1,37.4z"/>
	<path class="st8" d="M32.6,37.5c0,0.2,0,0.3,0.1,0.5s0.1,0.3,0.2,0.4c0.1,0.1,0.2,0.2,0.3,0.3c0.1,0.1,0.3,0.1,0.5,0.1
		c0.2,0,0.4-0.1,0.6-0.2c0.2-0.1,0.3-0.3,0.3-0.5H35c0,0.1-0.1,0.3-0.2,0.4c-0.1,0.1-0.2,0.2-0.3,0.3c-0.1,0.1-0.2,0.2-0.4,0.2
		c-0.1,0.1-0.3,0.1-0.5,0.1c-0.2,0-0.5,0-0.6-0.1c-0.2-0.1-0.3-0.2-0.4-0.3c-0.1-0.1-0.2-0.3-0.3-0.5c-0.1-0.2-0.1-0.4-0.1-0.6
		c0-0.2,0-0.4,0.1-0.6c0.1-0.2,0.2-0.4,0.3-0.5c0.1-0.1,0.3-0.3,0.4-0.4c0.2-0.1,0.4-0.1,0.6-0.1c0.4,0,0.8,0.1,1,0.4
		c0.2,0.3,0.4,0.7,0.4,1.3H32.6z M34.6,37.2c0-0.2,0-0.3-0.1-0.4c0-0.1-0.1-0.2-0.2-0.3c-0.1-0.1-0.2-0.2-0.3-0.2s-0.3-0.1-0.4-0.1
		c-0.2,0-0.3,0-0.4,0.1c-0.1,0.1-0.2,0.1-0.3,0.2c-0.1,0.1-0.2,0.2-0.2,0.3c-0.1,0.1-0.1,0.3-0.1,0.4H34.6z"/>
	<path class="st8" d="M36.1,39h-0.4v-3.1h0.4v0.4c0.1-0.2,0.3-0.3,0.4-0.4c0.2-0.1,0.3-0.1,0.6-0.1c0.2,0,0.4,0,0.5,0.1
		c0.2,0.1,0.3,0.2,0.4,0.3c0.1,0.1,0.1,0.2,0.1,0.3c0,0.1,0,0.2,0,0.4v2h-0.4v-2c0-0.3-0.1-0.5-0.2-0.6s-0.3-0.2-0.6-0.2
		c-0.1,0-0.2,0-0.3,0.1c-0.1,0-0.2,0.1-0.2,0.1c-0.1,0.1-0.1,0.1-0.2,0.2c-0.1,0.1-0.1,0.1-0.1,0.2c0,0.1-0.1,0.2-0.1,0.3
		c0,0.1,0,0.2,0,0.3V39z"/>
	<path class="st8" d="M40.1,39c0,0-0.1,0-0.2,0c-0.1,0-0.2,0-0.2,0c-0.2,0-0.3,0-0.4-0.1c-0.1-0.1-0.1-0.2-0.1-0.5v-2.3h-0.4v-0.3
		h0.4V35h0.4v0.9h0.6v0.3h-0.6v2.1c0,0.1,0,0.1,0,0.2c0,0.1,0,0.1,0,0.1c0,0,0.1,0.1,0.1,0.1c0,0,0.1,0,0.2,0c0,0,0.1,0,0.1,0
		c0,0,0.1,0,0.1,0V39z"/>
</g>
</svg>
